{
    "content": [
        {
            "uuid": "e5d179b9-aef1-4732-9a03-ad2fefcfd1c8",
            "published": "2024-12-07T18:05:47Z",
            "expires": "2024-12-27T23:00:00Z",
            "updated": "2024-12-07T18:06:39.864902Z",
            "workLocations": [
                {
                    "country": "NORGE",
                    "address": "Torget 7",
                    "city": "STAVANGER",
                    "postalCode": "4006",
                    "county": "ROGALAND",
                    "municipal": "STAVANGER"
                }
            ],
            "title": "Vi søker motivert og effektiv:  Renholder/cleaner",
            "description": "<p><strong>Vi søker motivert og effektiv:</strong></p>\n<h1><strong>Renholder/cleaner</strong></h1>\n<p><strong>SEEKING MOTIVATED AND EFFICIENT INDIVIDUALS FOR EQUIPMENT AND RESTAURANT CLEANING</strong></p>\n<p>Good guest experiences in Burger King begin with clean restaurants and a clean kitchen. That is why the position of cleaner is one of the most important roles in our restaurants.<br />\nAs a cleaner in Burger King, you mainly <strong>work outside the restaurant&#39;s opening hours</strong>. You are responsible for cleaning the guest area, kitchen and kitchen equipment.</p>\n<p><strong>Please note your availability in the application</strong>. <strong>We can be quite flexible with the working hours as many that work with us are students and we can often work around the school schedule.</strong></p>\n<p>To be successful in your job, it is important that you are independent, thorough in your work performance and efficient.</p>\n<br />\n<p>We are looking for someone who is reliable, accurate and has an eye for detail. If you also have a good mood and a great sense of responsibility, you will most likely fit in with us.</p>\n<p>You are welcome to have previous experience of cleaning work, but this is not a requirement as you will receive full training and continuous follow-up with us.</p>\n<p>Does this sound like you? Please send us an application.</p>\n<p>Please note your availability in the application. We can be quite flexible with the working hours as many that work with us are students and we can often work around the school schedule.</p>\n<p>Bli med i vårt team:</p>\n<p>Vi søker motiverte og effektive medarbeidere til rengjøring av vårt utstyr, kjøkken og restaurant!</p>\n<p>Gode gjesteopplevelser i Burger King begynner med rene restauranter og et rent kjøkken. Derfor er stillingen som renholder en av de viktigste rollene i restaurantene våre. Som renholder i Burger King arbeider du i hovedsak utenom restaurantens åpningstid. Du har ansvar for å rengjøre gjesteareal, kjøkken og kjøkkenutstyr.</p>\n<p>For å lykkes i jobben er det viktig at du er selvstendig, grundig i din arbeidsutførelse og effektiv.</p>\n<p>Vi ser etter deg som er pålitelig, nøyaktig og som har et øye for detaljer. Har du også godt humør og stor ansvarsfølelse, vil du med stor sannsynlighet passe inn hos oss.</p>\n<p>Du må gjerne ha erfaring fra renholdsarbeid fra før, men dette er ikke et krav da du vil få full opplæring og kontinuerlig oppfølging hos oss.</p>\n<p>Høres dette ut som deg? Send oss da gjerne en søknad.</p>\n",
            "sourceurl": null,
            "source": "Stillingsregistrering",
            "applicationUrl": "https://burgerking.easycruit.com/vacancy/3438189/221283?iso=no",
            "applicationDue": "Snarest",
            "occupationCategories": [
                {
                    "level1": "Salg og service",
                    "level2": "Salg, butikk- og varehandel"
                }
            ],
            "jobtitle": "Restaurantmedarbeider",
            "link": "https://arbeidsplassen.nav.no/stillinger/stilling/e5d179b9-aef1-4732-9a03-ad2fefcfd1c8",
            "employer": {
                "name": "Rk Sivertsen As",
                "orgnr": "932490609",
                "description": "<p><strong>Burger King</strong></p>\n<p>Burger King &#61; Home of the Whopper.<br />\nDet hele startet i Miami, hvor David Egderton og James McLamore hadde en helt enkel visjon -- å servere god, prisvennlig mat av høy kvalitet. Den første restauranten åpnet sine dører i 1954, og den ikoniske Whopper ble servert for første gang i 1957. Whopper ble raskt en folkekjær favoritt, og fortsatte sin reise over stadig nye kontinenter. Burger King har i dag 18.000 restauranter over hele verden, som serverer 2 milliarder Whoppere i året -- fremdeles med den samme visjonen fra 1954.</p>\n",
                "homepage": "https://burgerking.no"
            },
            "engagementtype": "Fast",
            "extent": "Deltid",
            "starttime": "Etter avtale",
            "positioncount": "1",
            "sector": "Privat"
        },
        {
            "uuid": "cfc357c6-a949-48c5-a90e-e381319ff5fb",
            "published": "2024-12-07T18:03:56Z",
            "expires": "2025-01-19T23:00:00Z",
            "updated": "2024-12-07T18:04:39.756328Z",
            "workLocations": [
                {
                    "country": "NORGE",
                    "address": "Halkjelsgata 20",
                    "city": "VOLDA",
                    "postalCode": "6100",
                    "county": "MØRE OG ROMSDAL",
                    "municipal": "VOLDA"
                }
            ],
            "title": "Barista søkes til koselig kafé i Volda",
            "description": "<section id=\"arb-aapningstekst\">\n<p>Er du vår nye barista?\nVil du bli en del av teamet på Voldas koseligste kafé? Vi leter etter en serviceinnstilt, kreativ og kaffeglødende barista som elsker å spre glede og gode smaksopplevelser!</p>\n</section>\n<section id=\"arb-serEtter\">\n<h2>Hva vi ser etter</h2>\n<ul><li>\n<p>Du er utdannet barista med erfaring (lang erfaring kan erstatte krav om baristautdanning)</p>\n</li><li>\n<p>Du har en lidenskap for kaffe og kundeservice</p>\n</li><li>\n<p>Du trives i et hektisk miljø og er god under press</p>\n</li><li>\n<p>Du er smilende og positiv og setter gjesten først</p>\n</li><li>\n<p>Du bidrar til et godt arbeidsmiljø og setter pris på å være en del av vårt team</p>\n</li></ul>\n</section>\n<section id=\"arb-arbeidsoppgaver\">\n<h2>Arbeidsoppgaver</h2>\n<ul><li>\n<p>Produksjon av ulike kaffedrikker</p>\n</li><li>\n<p>Yte god service, samt ha fokus på mersalg</p>\n</li><li>\n<p>Se til at utsalgssted er ryddig til enhver tid</p>\n</li><li>\n<p>Skape en hyggelig atmosfære for våre gjester</p>\n</li><li>\n<p>Klargjøre kafeen for dagen og rydde etterpå</p>\n</li><li>\n<p>Være kafeens ansikt utad</p>\n</li></ul>\n</section>\n<section id=\"arb-tilbyr\">\n<h2>Vi tilbyr</h2>\n<ul><li>\n<p>En morsom jobb i et hektisk miljø</p>\n</li><li>\n<p>Muligheten til å jobbe med kvalitetskaffe og en super espressomaskin</p>\n</li><li>\n<p>Jobb i en koselig og veldrevet kafé</p>\n</li><li>\n<p>Lønn etter avtale</p>\n</li><li>\n<p>Et trivelig arbeidsmiljø hvor du får være med å sette ditt preg på kaféen.</p>\n</li><li>\n<p>Muligheten til å være med på å skape gode opplevelser for lokalbefolkning og besøkende i vakre Volda</p>\n</li></ul>\n</section>\n",
            "sourceurl": null,
            "source": "Stillingsregistrering",
            "applicationUrl": null,
            "applicationDue": "2025-01-20",
            "occupationCategories": [
                {
                    "level1": "Reiseliv og mat",
                    "level2": "Restaurant"
                }
            ],
            "jobtitle": "Barista",
            "link": "https://arbeidsplassen.nav.no/stillinger/stilling/cfc357c6-a949-48c5-a90e-e381319ff5fb",
            "employer": {
                "name": "Fruenes As",
                "orgnr": "933324257",
                "description": "<p>Fruene driver kafé og Bed and Breakfast i vakre Volda på Sunnmøre.Vi tilbyr kvalitet, komfort og kos til våre gjester, og vi bruker kun de beste, korteiste råvarer.</p>\n",
                "homepage": "https://www.fruenes.no"
            },
            "engagementtype": "Fast",
            "extent": "Heltid",
            "starttime": "Etter avtale",
            "positioncount": "1",
            "sector": "Privat"
        }
    ],
    "totalElements": 5000,
    "pageNumber": 0,
    "pageSize": 20,
    "totalPages": 250,
    "first": false,
    "last": true,
    "sort": "published:desc"
}