{
    "content": [
        {
            "uuid": "e5d179b9-aef1-4732-9a03-ad2fefcfd1c8",
            "published": "2024-12-07T18:05:47Z",
            "expires": "2024-12-27T23:00:00Z",
            "updated": "2024-12-07T18:06:39.864902Z",
            "workLocations": [
                {
                    "country": "NORGE",
                    "address": "Torget 7",
                    "city": "STAVANGER",
                    "postalCode": "4006",
                    "county": "ROGALAND",
                    "municipal": "STAVANGER"
                }
            ],
            "title": "Vi søker motivert og effektiv:  Renholder/cleaner",
            "description": "<p><strong>Vi søker motivert og effektiv:</strong></p>\n<h1><strong>Renholder/cleaner</strong></h1>\n<p><strong>SEEKING MOTIVATED AND EFFICIENT INDIVIDUALS FOR EQUIPMENT AND RESTAURANT CLEANING</strong></p>\n<p>Good guest experiences in Burger King begin with clean restaurants and a clean kitchen. That is why the position of cleaner is one of the most important roles in our restaurants.<br />\nAs a cleaner in Burger King, you mainly <strong>work outside the restaurant&#39;s opening hours</strong>. You are responsible for cleaning the guest area, kitchen and kitchen equipment.</p>\n<p><strong>Please note your availability in the application</strong>. <strong>We can be quite flexible with the working hours as many that work with us are students and we can often work around the school schedule.</strong></p>\n<p>To be successful in your job, it is important that you are independent, thorough in your work performance and efficient.</p>\n<br />\n<p>We are looking for someone who is reliable, accurate and has an eye for detail. If you also have a good mood and a great sense of responsibility, you will most likely fit in with us.</p>\n<p>You are welcome to have previous experience of cleaning work, but this is not a requirement as you will receive full training and continuous follow-up with us.</p>\n<p>Does this sound like you? Please send us an application.</p>\n<p>Please note your availability in the application. We can be quite flexible with the working hours as many that work with us are students and we can often work around the school schedule.</p>\n<p>Bli med i vårt team:</p>\n<p>Vi søker motiverte og effektive medarbeidere til rengjøring av vårt utstyr, kjøkken og restaurant!</p>\n<p>Gode gjesteopplevelser i Burger King begynner med rene restauranter og et rent kjøkken. Derfor er stillingen som renholder en av de viktigste rollene i restaurantene våre. Som renholder i Burger King arbeider du i hovedsak utenom restaurantens åpningstid. Du har ansvar for å rengjøre gjesteareal, kjøkken og kjøkkenutstyr.</p>\n<p>For å lykkes i jobben er det viktig at du er selvstendig, grundig i din arbeidsutførelse og effektiv.</p>\n<p>Vi ser etter deg som er pålitelig, nøyaktig og som har et øye for detaljer. Har du også godt humør og stor ansvarsfølelse, vil du med stor sannsynlighet passe inn hos oss.</p>\n<p>Du må gjerne ha erfaring fra renholdsarbeid fra før, men dette er ikke et krav da du vil få full opplæring og kontinuerlig oppfølging hos oss.</p>\n<p>Høres dette ut som deg? Send oss da gjerne en søknad.</p>\n",
            "sourceurl": null,
            "source": "Stillingsregistrering",
            "applicationUrl": "https://burgerking.easycruit.com/vacancy/3438189/221283?iso=no",
            "applicationDue": "Snarest",
            "occupationCategories": [
                {
                    "level1": "Salg og service",
                    "level2": "Salg, butikk- og varehandel"
                }
            ],
            "jobtitle": "Restaurantmedarbeider",
            "link": "https://arbeidsplassen.nav.no/stillinger/stilling/e5d179b9-aef1-4732-9a03-ad2fefcfd1c8",
            "employer": {
                "name": "Rk Sivertsen As",
                "orgnr": "932490609",
                "description": "<p><strong>Burger King</strong></p>\n<p>Burger King &#61; Home of the Whopper.<br />\nDet hele startet i Miami, hvor David Egderton og James McLamore hadde en helt enkel visjon -- å servere god, prisvennlig mat av høy kvalitet. Den første restauranten åpnet sine dører i 1954, og den ikoniske Whopper ble servert for første gang i 1957. Whopper ble raskt en folkekjær favoritt, og fortsatte sin reise over stadig nye kontinenter. Burger King har i dag 18.000 restauranter over hele verden, som serverer 2 milliarder Whoppere i året -- fremdeles med den samme visjonen fra 1954.</p>\n",
                "homepage": "https://burgerking.no"
            },
            "engagementtype": "Fast",
            "extent": "Deltid",
            "starttime": "Etter avtale",
            "positioncount": "1",
            "sector": "Privat"
        }
    ],
    "totalElements": 5000,
    "pageNumber": 0,
    "pageSize": 20,
    "totalPages": 250,
    "first": true,
    "last": false,
    "sort": "published:desc"
}